Program
  List
    FunctionDeclaration
      IdDecl ID="a"
      Args
        List
      Block
        List
          Declaration
            IdDecl ID="x"
            Opt
          Declaration
            IdDecl ID="y"
            Opt
