Program
  List
    FunctionDeclaration
      IdDecl ID="a"
      Args
        List
      Block
        List
          Declaration
            IdDecl ID="x"
            Opt
              Numeral NUMERAL="3"
          Declaration
            IdDecl ID="y"
            Opt
              Numeral NUMERAL="5"
          Declaration
            IdDecl ID="k"
            Opt
              Sub
                Div
                  IdUse ID="x"
                  IdUse ID="y"
                IdUse ID="x"
