Program
  List
    FunctionDeclaration
      IdDecl ID="a"
      Args
        List
      Block
        List
          Assignment
            IdUse ID="a"
            Eq
              Div
                IdUse ID="x"
                IdUse ID="b"
              IdUse ID="c"
