Program
  List
    FunctionDeclaration
      IdDecl ID="a"
      Args
        List
      Block
        List
          Declaration
            IdDecl ID="x"
            Opt
              Numeral NUMERAL="4"
          Declaration
            IdDecl ID="y"
            Opt
              Numeral NUMERAL="5"
          Declaration
            IdDecl ID="c"
            Opt
              Le
                Mul
                  Numeral NUMERAL="1"
                  Numeral NUMERAL="2"
                Mul
                  Numeral NUMERAL="2"
                  Numeral NUMERAL="4"
