Program
  List
    FunctionDeclaration
      IdDecl ID="a"
      Args
        List
      Block
        List
    FunctionDeclaration
      IdDecl ID="b"
      Args
        List
      Block
        List
