Program
  List
    FunctionDeclaration
      IdDecl ID="a"
      Args
        List
      Block
        List
          ReturnStatement
            Negation
              Negation
                Negation
                  IdUse ID="x"
